{
    "KPlugin": {
        "Authors": [
            {
                "Email": "",
                "Name": ""
            }
        ],
        "Category": "",
        "Description": "Battery, AC, sleep and PowerDevil information.",
        "Description[ar]": "معلومات عن البطارية والشحن و النوم و عفريت الطاقة",
        "Description[az]": "Batareya, elektrik şəbəkəsi, və PowerDevil məlumatları.",
        "Description[bg]": "Данни за батерия, AC, приспиване и PowerDevil.",
        "Description[ca@valencia]": "Informació de la bateria, AC, adorm i de PowerDevil.",
        "Description[ca]": "Informació de la bateria, AC, adorm i del PowerDevil.",
        "Description[cs]": "Informace o baterii, AC a uspání.",
        "Description[da]": "Information om batteri, strømforsyning, dvale og PowerDevil.",
        "Description[de]": "Informationen zu Akku, Netzanschluss, Standby-Modus und PowerDevil.",
        "Description[en_GB]": "Battery, AC, sleep and PowerDevil information.",
        "Description[es]": "Información de batería, CA, suspensión y PowerDevil.",
        "Description[eu]": "Bateria, AC, loa eta PowerDevil-i buruzko informazioa.",
        "Description[fi]": "Akku-, virta-, valmiustila- ja PowerDevil-tiedot.",
        "Description[fr]": "Batterie, alimentation secteur, veille et informations sur PowerDevil.",
        "Description[hu]": "A telepek, a tápellátás és a PowerDevil energiakezelő jellemzői.",
        "Description[ia]": "Batteria, AC, reposo e information de PowerDevil.",
        "Description[id]": "Informasi Baterai, AC, tidur dan PowerDevil.",
        "Description[is]": "Upplýsingar um raflöður, AC-straum, svæfingu og PowerDevil orkustýringarpúkann.",
        "Description[it]": "Informazioni su batteria, alimentazione, sospensione e PowerDevil",
        "Description[ja]": "バッテリ、商用電源、スリープ、PowerDevil の情報。",
        "Description[ko]": "배터리; AC; 절전 모드 및 PowerDevil 정보입니다.",
        "Description[lt]": "Informacija apie akumuliatorių, kintamąją srovę, pristabdymą ir PowerDevil.",
        "Description[nl]": "Accu-, stroomvoorziening-, slaapstand- en PowerDevil-informatie.",
        "Description[nn]": "Informasjon om batteristatus, lading og liknande.",
        "Description[pa]": "ਬੈਟਰੀ, ਏਸੀ, ਸਲੀਪ ਅਤੇ ਪਾਵਰਡਿਵੈਲ ਜਾਣਕਾਰੀ ਹੈ।",
        "Description[pl]": "Wyświetla informacje o baterii, zasilaczu, usypianiu i z PowerDevil.",
        "Description[pt]": "Informação sobre a bateria, corrente eléctrica e o PowerDevil.",
        "Description[pt_BR]": "Bateria, adaptador de energia, dormir e informação do PowerDevil.",
        "Description[ro]": "Informații despre acumulator, priză, adormire și PowerDevil.",
        "Description[ru]": "Информация о батареях, электрической сети и PowerDevil.",
        "Description[sk]": "Informácie o batérii, AC a uspaní.",
        "Description[sl]": "Informacije o bateriji, omrežnem napajanju, pripravljenosti in PowerDevilu.",
        "Description[sv]": "Information om batteri, nätspänning, viloläge och Powerdevil.",
        "Description[ta]": "மின்கலம், ஆற்றல், தூக்கம், மற்றும் PowerDevil குறித்த விவரங்கள்",
        "Description[tr]": "Pil, Adaptör, uyku kipi ve PowerDevil bilgileri.",
        "Description[uk]": "Акумулятор, мережеве живлення, відомості щодо присипляння і PowerDevil.",
        "Description[vi]": "Thông tin pin, củ sạc, chế độ ngủ và PowerDevil.",
        "Description[x-test]": "xxBattery, AC, sleep and PowerDevil information.xx",
        "Description[zh_CN]": "提供电池、交流适配器、系统睡眠及 PowerDevil 信息。",
        "Icon": "preferences-system-power-management",
        "Id": "powermanagement",
        "Name": "Power Management",
        "Name[ar]": "إدارة الطاقة",
        "Name[az]": "Enerjiyə nəzarət",
        "Name[bg]": "Управление на захранването",
        "Name[ca@valencia]": "Gestió d'energia",
        "Name[ca]": "Gestió d'energia",
        "Name[cs]": "Správa napájení",
        "Name[da]": "Strømstyring",
        "Name[de]": "Energieverwaltung",
        "Name[en_GB]": "Power Management",
        "Name[es]": "Gestión de energía",
        "Name[eu]": "Energia-kudeaketa",
        "Name[fi]": "Virranhallinta",
        "Name[fr]": "Gestion de l'énergie",
        "Name[hu]": "Energiakezelő",
        "Name[ia]": "Gestion de energia",
        "Name[id]": "Pengelolaan Daya",
        "Name[is]": "Aflstjórnun",
        "Name[it]": "Gestione energetica",
        "Name[ja]": "電源管理",
        "Name[ka]": "ენერგიის მართვა",
        "Name[ko]": "전원 관리",
        "Name[lt]": "Energijos valdymas",
        "Name[nl]": "Energiebeheer",
        "Name[nn]": "Straum­styring",
        "Name[pa]": "ਪਾਵਰ ਇੰਤਜ਼ਾਮ",
        "Name[pl]": "Zarządzanie energią",
        "Name[pt]": "Gestão de Energia",
        "Name[pt_BR]": "Gerenciamento de energia",
        "Name[ro]": "Gestiunea alimentării",
        "Name[ru]": "Управление питанием",
        "Name[sk]": "Správa napájania",
        "Name[sl]": "Upravljanje z energijo",
        "Name[sv]": "Strömhantering",
        "Name[ta]": "ஆற்றல் மேலாண்மை",
        "Name[tr]": "Güç Yönetimi",
        "Name[uk]": "Керування живленням",
        "Name[vi]": "Quản lí nguồn điện",
        "Name[x-test]": "xxPower Managementxx",
        "Name[zh_CN]": "电源管理",
        "Name[zh_TW]": "電源管理",
        "Website": "https://kde.org/plasma-desktop"
    }
}
