{
    "KPlugin": {
        "Authors": [
            {
                "Email": "mart@kde.org",
                "Name": "Marco Martin",
                "Name[ar]": "Marco Martin",
                "Name[az]": "Marco Martin",
                "Name[bg]": "Марко Мартин",
                "Name[ca@valencia]": "Marco Martin",
                "Name[ca]": "Marco Martin",
                "Name[cs]": "Marco Martin",
                "Name[da]": "Marco Martin",
                "Name[de]": "Marco Martin",
                "Name[en_GB]": "Marco Martin",
                "Name[es]": "Marco Martin",
                "Name[eu]": "Marco Martin",
                "Name[fi]": "Marco Martin",
                "Name[fr]": "Marco Martin",
                "Name[hu]": "Marco Martin",
                "Name[ia]": "Marco Martin",
                "Name[id]": "Marco Martin",
                "Name[is]": "Marco Martin",
                "Name[it]": "Marco Martin",
                "Name[ja]": "Marco Martin",
                "Name[ka]": "მაკრო მარტინი",
                "Name[ko]": "Marco Martin",
                "Name[lt]": "Marco Martin",
                "Name[nl]": "Marco Martin",
                "Name[nn]": "Marco Martin",
                "Name[pa]": "ਮਾਰਕੋ ਮਾਰਟਿਨ",
                "Name[pl]": "Marco Martin",
                "Name[pt]": "Marco Martin",
                "Name[pt_BR]": "Marco Martin",
                "Name[ro]": "Marco Martin",
                "Name[ru]": "Marco Martin",
                "Name[sk]": "Marco Martin",
                "Name[sl]": "Marco Martin",
                "Name[sv]": "Marco Martin",
                "Name[ta]": "மார்க்கோ மார்ட்டின்",
                "Name[tr]": "Marco Martin",
                "Name[uk]": "Marco Martin",
                "Name[vi]": "Marco Martin",
                "Name[x-test]": "xxMarco Martinxx",
                "Name[zh_CN]": "Marco Martin"
            }
        ],
        "Category": "System Information",
        "Description": "System monitor Widget that shows the download and upload data rate",
        "Description[ar]": "أداة مراقبة النظام التي تعرض سرعة تنزيل ورفع البيانات",
        "Description[az]": "Sistem monitporu vidjeti verilənlərin endirilməsi və yüklənməsi tezliyini göstərir",
        "Description[bg]": "Уиджет за системен монитор, който показва скоростта на изтегляне и качване на данни",
        "Description[ca@valencia]": "Giny del monitor del sistema que mostra la velocitat de baixada i pujada de les dades",
        "Description[ca]": "Giny del monitor del sistema que mostra la velocitat de baixada i pujada de les dades",
        "Description[da]": "Systemovervågning-widget som viser download- og uploadhastighed",
        "Description[de]": "Systemmonitor-Miniprogramm, das die Download- und Upload-Datenrate anzeigt",
        "Description[en_GB]": "System monitor Widget that shows the download and upload data rate",
        "Description[es]": "Elemento gráfico del monitor del sistema que muestra las velocidades de subida y bajada de datos",
        "Description[eu]": "Zama-jaisteko eta -igotzeko datuen emaria erakusten duen sistema gainbegiratzeko trepeta",
        "Description[fi]": "Lataus- ja lähetysnopeuden näyttävä järjestelmänvalvontasovelma",
        "Description[fr]": "Composant graphique de surveillance du système, affichant le débit pour les échanges montant /descendant de données.",
        "Description[hu]": "A le- és feltöltési sebességet megjelenítő elem",
        "Description[ia]": "Widget de supervision de systema que monstra le  velocitate de discargar e incargar datos",
        "Description[id]": "Widget pemantau sistem yang menampilkan laju data unggah dan unduh",
        "Description[it]": "Oggetto di monitoraggio del sistema che mostra la velocità di trasferimento e ricezione dei dati",
        "Description[ja]": "ダウンロード速度とアップロード速度を表示するシステムモニタウィジェット",
        "Description[ko]": "데이터 다운로드 및 업로드 전송률을 표시하는 시스템 모니터 위젯",
        "Description[lt]": "Sistemos prižiūryklės valdiklis, kuris rodo duomenų atsiuntimo ir išsiuntimo spartą",
        "Description[nl]": "Systeemmonitorwidget die gegevenssnelheid van down- en uploaden toont",
        "Description[nn]": "System­overvaking som viser ned- og opplastingsratar",
        "Description[pl]": "Element interfejsu, który pokazuje szybkość wysyłania i pobierania danych",
        "Description[pt]": "Elemento de monitorização do sistema que mostra a taxa de dados recebidos e enviados",
        "Description[pt_BR]": "Widget monitor do sistema que mostra a taxa de download e upload",
        "Description[ro]": "Control grafic de monitorizare a sistemului ce arată rata de încărcare și descărcare a datelor",
        "Description[ru]": "Мониторинг скорости получения и передачи данных по сети",
        "Description[sk]": "Miniaplikácia monitorovania systému, ktorá zobrazuje množstvo sťahovaných a odosielaných dát",
        "Description[sl]": "Gradnik sistemskega monitorja, ki prikazuje podatke prenosa podatkov navznoter in navzven",
        "Description[sv]": "Grafisk systemövervakningskomponent som visar nerladdnings- och uppladdningshastighet för data",
        "Description[ta]": "பதிவிறக்க மற்றும் பதிவேற்ற வீதத்தைக் காட்டும் பிளாஸ்மாய்ட்",
        "Description[tr]": "İndirme ve yükleme veri hızını gösteren sistem izleyicisi araç takımı",
        "Description[uk]": "Віджет нагляду за системою, який показує швидкість отримання та вивантаження даних",
        "Description[vi]": "Phụ kiện giám sát hệ thống cho biết tốc độ tải dữ liệu về và lên",
        "Description[x-test]": "xxSystem monitor Widget that shows the download and upload data ratexx",
        "Description[zh_CN]": "显示下载和上传速率的系统监视挂件",
        "EnabledByDefault": true,
        "FormFactors": [
            "desktop"
        ],
        "Icon": "network-workgroup",
        "Id": "org.kde.plasma.systemmonitor.net",
        "License": "GPL-2.0+",
        "Name": "Network speed",
        "Name[ar]": "سرعة الشبكة",
        "Name[az]": "Şəbəkə sürəti",
        "Name[bg]": "Скорост на мрежата",
        "Name[ca@valencia]": "Velocitat de xarxa",
        "Name[ca]": "Velocitat de xarxa",
        "Name[cs]": "Rychlost sítě",
        "Name[da]": "Netværkshastighed",
        "Name[de]": "Netzwerkgeschwindigkeit",
        "Name[en_GB]": "Network speed",
        "Name[es]": "Velocidad de la red",
        "Name[et]": "Võrgukiirus",
        "Name[eu]": "Sareko abiadura",
        "Name[fi]": "Verkon nopeus",
        "Name[fr]": "Débit du réseau",
        "Name[hi]": "नेटवर्क की गती",
        "Name[hsb]": "Spěšnosć syće",
        "Name[hu]": "Hálózati sebesség",
        "Name[ia]": "Velocitate de Rete",
        "Name[id]": "Kecepatan Jaringan",
        "Name[is]": "Afköst nets",
        "Name[it]": "Velocità di rete",
        "Name[ja]": "ネットワーク速度",
        "Name[ka]": "ქსელის სიჩქარე",
        "Name[ko]": "네트워크 속도",
        "Name[lt]": "Tinklo greitis",
        "Name[ml]": "നെറ്റ്‍വർക്ക് വേഗത",
        "Name[nl]": "Netwerksnelheid",
        "Name[nn]": "Nettverks­fart",
        "Name[pa]": "ਨੈੱਟਵਰਕ ਸਪੀਡ",
        "Name[pl]": "Szybkość sieci",
        "Name[pt]": "Velocidade da rede",
        "Name[pt_BR]": "Velocidade de rede",
        "Name[ro]": "Viteza rețelei",
        "Name[ru]": "Скорость передачи данных по сети",
        "Name[sk]": "Rýchlosť siete",
        "Name[sl]": "Hitrost omrežja",
        "Name[sv]": "Nätverkshastighet",
        "Name[ta]": "பிணைய வேகம்",
        "Name[tg]": "Суръати шабака",
        "Name[tr]": "Ağ hızı",
        "Name[uk]": "Швидкість мережі",
        "Name[vi]": "Tốc độ mạng",
        "Name[x-test]": "xxNetwork speedxx",
        "Name[zh_CN]": "网络速度",
        "Name[zh_TW]": "網路速度",
        "ServiceTypes": [
            "Plasma/Applet"
        ],
        "Version": "1.0",
        "Website": "https://www.kde.org/plasma-desktop"
    },
    "X-Plasma-API": "declarativeappletscript",
    "X-Plasma-MainScript": "ui/main.qml",
    "X-Plasma-Provides": [
        "org.kde.plasma.systemmonitor"
    ],
    "X-Plasma-RootPath": "org.kde.plasma.systemmonitor"
}
