{
    "KPlugin": {
        "Description": "XML Data from Environment Canada",
        "Description[ar]": "بيانات XML من وزارة البيئة الكندية",
        "Description[az]": "Environment Canada-dan XML formatında məlumatlar",
        "Description[bg]": "XML данни от Environment Canada",
        "Description[ca@valencia]": "Dades XML des de Medi ambient del Canadà",
        "Description[ca]": "Dades XML des de Medi ambient del Canadà",
        "Description[cs]": "XML data z meteorologického úřadu Kanady (EC)",
        "Description[da]": "XML-data fra Environment Canada",
        "Description[de]": "XML-Daten von Environment Canada",
        "Description[en_GB]": "XML Data from Environment Canada",
        "Description[es]": "Datos XML de medio ambiente de Canada",
        "Description[eu]": "«Environment Canada»ko XML datuak",
        "Description[fi]": "XML-tietoa Environment Canadalta",
        "Description[fr]": "Données au format « XML » du service de météorologie du Canada",
        "Description[hu]": "XML-adatok az Environment Canada szervezettől",
        "Description[ia]": "Datos XML ex Environment Canada",
        "Description[id]": "Data XML dari Environment Canada",
        "Description[is]": "XML gögn frá Umhverfisstofnun Kanada",
        "Description[it]": "Dati XML da Environment Canada",
        "Description[ja]": "Environment Canada の XML データ",
        "Description[ko]": "캐나다 환경부의 XML 데이터",
        "Description[lt]": "XML duomenys iš Environment Canada",
        "Description[nl]": "XML-gegevens van Environment Canada",
        "Description[nn]": "XML-data frå Environment Canada",
        "Description[pa]": "ਇੰਨਵਾਇਰਨਮੈਂਟ ਕੇਨੈਡਾ ਤੋਂ XML ਡਾਟਾ",
        "Description[pl]": "Dane XML z Environment Canada",
        "Description[pt]": "Dados em XML do Environment Canada",
        "Description[pt_BR]": "Dados em XML do Environment Canada",
        "Description[ro]": "Date XML de la Environment Canada",
        "Description[ru]": "Данные в формате XML от Environment Canada",
        "Description[sk]": "XML dáta z Environment Canada",
        "Description[sl]": "Podatki XML od Environment Canada",
        "Description[sv]": "XML-data från Environment Canada",
        "Description[tr]": "Environment Canada'dan XML Verisi",
        "Description[uk]": "Дані XML з метеорологічного відділу Канади",
        "Description[vi]": "Dữ liệu XML từ Bộ Môi trường Canada",
        "Description[x-test]": "xxXML Data from Environment Canadaxx",
        "Description[zh_CN]": "加拿大环境部提供的 XML 数据",
        "Description[zh_TW]": "來自 Environment Canada 的 XML 資料",
        "Icon": "noneyet",
        "Id": "envcan",
        "Name": "Environment Canada",
        "Name[ar]": "بيئة كندا",
        "Name[az]": "Environment Canada",
        "Name[be@latin]": "Environment Canada",
        "Name[bg]": "Environment Canada",
        "Name[bs]": "Prirodna sredina Kanada",
        "Name[ca@valencia]": "Medi ambient del Canadà",
        "Name[ca]": "Medi ambient del Canadà",
        "Name[cs]": "Meteorologický úřad Kanady (EC)",
        "Name[da]": "Environment Canada",
        "Name[de]": "Environment Canada",
        "Name[el]": "Περιβάλλον Καναδά",
        "Name[en_GB]": "Environment Canada",
        "Name[eo]": "Environment Canada",
        "Name[es]": "Medio ambiente de Canada",
        "Name[et]": "Environment Canada",
        "Name[eu]": "Kanadako Ingurumen Ministerioa",
        "Name[fi]": "Environment Canada -palvelu",
        "Name[fr]": "Météorologie du Canada",
        "Name[fy]": "Omjouwing Kanada",
        "Name[ga]": "Environment Canada",
        "Name[gl]": "Environment Canada",
        "Name[gu]": "એન્વાર્યમેન્ટ કેનેડા",
        "Name[he]": "Environment Canada",
        "Name[hi]": "एनवायरनमेंट कनाडा",
        "Name[hne]": "कनाडा मौसम",
        "Name[hr]": "Okoliš Kanade",
        "Name[hu]": "Environment Canada",
        "Name[ia]": "Environment Canada",
        "Name[id]": "Environment Canada",
        "Name[is]": "Environment Canada",
        "Name[it]": "Environment Canada",
        "Name[ja]": "Environment Canada",
        "Name[ka]": "კანადის გარემო",
        "Name[kk]": "Environment Canada",
        "Name[km]": "បរិស្ថាន​ប្រទេស​កាណាដា",
        "Name[kn]": "ಎನ್ವಯರನ್ಮೆಂಟ್ ಕೆನಡಾ",
        "Name[ko]": "캐나다 환경부",
        "Name[lt]": "Environment Canada",
        "Name[lv]": "Environment Canada",
        "Name[mk]": "Environment Canada",
        "Name[ml]": "കാനഡയുടെ പരിസ്ഥിതി",
        "Name[mr]": "हवामान कॅनडा",
        "Name[nb]": "Environment Canada",
        "Name[nds]": "Ümwelt Kanada",
        "Name[ne]": "वातावरण क्यानाडा",
        "Name[nl]": "Environment Canada",
        "Name[nn]": "Environment Canada",
        "Name[pa]": "ਇੰਨਵਾਇਰਮੈਂਟ ਕੇਨੈਡਾ",
        "Name[pl]": "Environment Canada",
        "Name[pt]": "Environment Canada",
        "Name[pt_BR]": "Environment Canada",
        "Name[ro]": "Environment Canada",
        "Name[ru]": "Environment Canada",
        "Name[se]": "Environment Canada",
        "Name[si]": "කැනඩා පාරිසරිකය",
        "Name[sk]": "Počasie - Environment Canada",
        "Name[sl]": "Environment Canada",
        "Name[sr@ijekavian]": "Природна средина Канада",
        "Name[sr@ijekavianlatin]": "Prirodna sredina Kanada",
        "Name[sr@latin]": "Prirodna sredina Kanada",
        "Name[sr]": "Природна средина Канада",
        "Name[sv]": "Environment Canada",
        "Name[ta]": "சுற்றுச்சூழல் கனடா",
        "Name[te]": "కెనడా వాతావరణం",
        "Name[th]": "Environment Canada",
        "Name[tr]": "Environment Canada",
        "Name[ug]": "كانادا مۇھىتى",
        "Name[uk]": "Погода в Канаді",
        "Name[vi]": "Bộ Môi trường Canada",
        "Name[wa]": "Evironmint Canada",
        "Name[x-test]": "xxEnvironment Canadaxx",
        "Name[zh_CN]": "加拿大环境部",
        "Name[zh_TW]": "Environment Canada"
    },
    "X-KDE-ParentApp": "weatherengine"
}
